- space law space brochure
- astrolabe
- easter egg
- fuel cell
- hologram
- antenna
- weather machine
- manifold


less 
- space law space brochure
- astrolabe
- easter egg
- fuel cell
- antenna
- weather machine


000011
000101
000110
000111
001001
001010
001011
001100
001101
001110
001111
010001
010010
010011
010100
010101
010110
010111
011000
011001
011010
011011
011100
011101
011110
011111 -- less
100001
100010
100011
100100
100101
100110
100111
101000
101001
101010
101011
101100
101101
101110
101111 -- less
110000
110001
110010
110011 -- i think it was this one
110100
110101
110110
110111 -- too much
111000
111001
111010
111011 -- too much
111100
111101 -- too much
111110 -- less
111111 -- too much












more
- hologram
- manifold
